<?xml version="1.0" encoding="utf-8"?>
<!-- Generator: Adobe Illustrator 19.1.0, SVG Export Plug-In . SVG Version: 6.00 Build 0)  -->
<!DOCTYPE svg PUBLIC "-//W3C//DTD SVG 1.1//EN" "http://www.w3.org/Graphics/SVG/1.1/DTD/svg11.dtd">
<svg version="1.1" id="Layer_1" xmlns="http://www.w3.org/2000/svg" xmlns:xlink="http://www.w3.org/1999/xlink" x="0px" y="0px"
	 width="782px" height="300px" viewBox="0 0 782 300" style="enable-background:new 0 0 782 300;" xml:space="preserve">
<style type="text/css">
	.st0{fill:#231F20;}
	.st1{fill:#0099FF;}
	.st2{fill:none;}
</style>
<g>
	<path class="st0" d="M149,142.3c3.2,8.3-1,17.7-9.3,20.9c-8.3,3.2-17.7-1-20.9-9.3c-3.2-8.3,1-17.7,9.3-20.9
		C136.4,129.8,145.8,134,149,142.3z"/>
	<g>
		<path class="st0" d="M190.5,95.5l-22.4,22.7c5.3,9.1,8,19.3,8,29.6c0,9.7-2.4,19.4-7.3,28.3l22.7,22.4
			c10.5-15.4,15.6-33,15.6-50.6C207.2,129.4,201.5,111,190.5,95.5z"/>
		<path class="st1" d="M54.7,212.6c-17.2-16.7-26.9-39.2-27.3-63.2c-0.4-24,8.7-46.7,25.4-64C69.5,68.2,92,58.5,116,58.2
			c25.5-0.4,49.5,10,66.8,28.5c-4.9,5-16.2,16.4-21.8,22.1c-11.3-12.6-27.5-19.7-44.6-19.5l0,0C84,89.8,58,116.6,58.5,149
			c0.5,32.4,27.2,58.4,59.7,57.9c17.1-0.3,33.1-7.9,44-20.8c5.8,5.7,17.2,16.9,22.1,21.8c-16.8,18.8-40.4,29.8-65.7,30.2
			C94.6,238.4,71.9,229.4,54.7,212.6z"/>
	</g>
</g>
<g>
	<g>
		<path class="st0" d="M283.3,107.7c11.1,0,15.9,5.5,15.9,12.2c0,6.1-3.5,9.9-9,9.9c-3.5,0-6.4-2.6-6.4-8c0-6.7-1.6-9.9-5.4-9.9
			c-11.6,0-24.4,30.8-24.4,49.6c0,10.1,4.7,14.9,11.4,14.9c4.3,0,9.3-2.6,13.8-7.2c7.9-8.2,7.9-14.6,10.3-14.6
			c1.3,0,1.8,0.8,1.8,1.6c0,5.1-11.7,29.2-32.2,29.2c-13,0-20.4-9.9-20.4-26.3C238.5,136,258.4,107.7,283.3,107.7z"/>
		<path class="st0" d="M335.8,203.4c0,6.8,1.7,8.5,9.6,9.3c3,0.3,3.6,0.8,3.6,1.9c0,1.1-0.6,1.9-2.7,1.9c-3.8,0-6.9-0.6-15.9-0.6
			c-4.6,0-9.1,0.6-13.7,0.6c-2,0-3.8-0.2-3.8-1.9c0-2,1.6-1.9,3.5-2.2c3.3-0.6,6.4-0.3,6.4-4.7v-80.2c0-4.6-2.4-4.4-5.8-5.3
			c-2-0.6-3.6-0.6-3.6-2c0-2.4,3.5-1.6,13-6.4c6-3,6.4-4.4,7.9-4.4c0.8,0,0.9,0.3,0.9,3.8c0,6.1,0.2,6.3,0.6,6.3
			c0.6,0,8.2-10.1,17.8-10.1c13.8,0,23.9,15.7,23.9,35.7c0,24.4-13.4,38.8-28.5,38.8c-8.2,0-12.1-4.1-12.7-4.1c-0.5,0-0.6,0.3-0.6,2
			V203.4z M335.8,163.6c0,10.7,3.8,16.4,11,16.4c10.1,0,16.4-11.9,16.4-31.1c0-19.8-6.3-31.8-15.9-31.8c-6.3,0-11.5,5.3-11.5,10.2
			V163.6z"/>
		<path class="st0" d="M443,167.1c0,6.3,2.8,8.2,5.2,8.2c3.3,0,3.8-5,6.3-5c0.9,0,1.4,0.6,1.4,1.9c0,5.2-6.9,12.6-13.7,12.6
			c-10.1,0-11.2-11.6-13-11.6c-1.9,0-6.6,12.3-18.9,12.3c-8.2,0-13.2-4.4-13.2-13.7c0-17.3,33-28.3,33-38.2v-13.5
			c0-4.1-2.4-6.9-6.6-6.9c-6,0-11.2,5-12.1,13.4c-0.8,6.9-3.9,11.2-9.7,11.2c-3.8,0-5.7-2-5.7-5.2c0-6.1,12.6-23.1,31.4-23.1
			c12.3,0,15.6,2.2,15.6,10.7V167.1z M430.1,145.4c0-1.9-0.5-2.2-1.6-2.2c-2,0-16.5,12.4-17,23.4c0,4.9,2.7,8.6,7.1,8.6
			c7.4,0,11.5-5.7,11.5-19.8V145.4z"/>
		<path class="st0" d="M503.1,177.5c13.5,0,14.5-12.9,17.6-12.9c0.9,0,1.7,0.6,1.7,2.8c0,4.7-7.7,17.9-24.7,17.9
			c-17.6,0-29.6-15.7-29.6-39.3c0-20.7,13.2-36.8,32.7-36.8c5.5,0,13.2,1.3,16,3c2.2,1.3,2.5,1.7,2.5,8.5c0,10.8-0.3,11.5-3.5,11.5
			c-2.8,0-3.8-1.1-6.1-5.5c-5.7-10.4-6.4-13.7-10.7-13.7c-7.4,0-16.5,10.7-16.5,29.2C482.7,162.1,491.5,177.5,503.1,177.5z"/>
		<path class="st0" d="M556,151.8v20.8c0,4.2,1.4,5.3,6.4,7.1c1.7,0.6,3,0.6,3,1.9c0,0.9-0.8,1.9-1.6,1.9c-4.7,0-9.4-0.6-14.1-0.6
			c-4.4,0-8.8,0.6-13.2,0.6c-1.4,0-1.9-0.5-1.9-1.7c0-1.3,0.6-1.7,2.2-2c5.3-0.9,6.3-2.4,6.3-6.3V90.7c0-8.3-2.7-8.2-4.6-8.5
			c-1.7-0.2-3.5-0.6-3.5-2.2c0-1.3,2-1.6,3.5-1.9c5.7-1.3,9.4-3,12-4.2c2-1.1,3.6-2.4,4.2-2.4c0.9,0,1.3,0.5,1.3,2.2v69.5
			c0,1.4,0.3,1.6,0.6,1.6c0.3,0,1.6-1.3,6-5.7c17.4-17.4,19.2-18.2,19.2-21.2c0-1.9-1.7-2.7-6-3c-2-0.2-3.8-0.6-3.8-2
			c0-0.8,0.9-1.7,2.7-1.7c4.9,0,9.1,0.6,13.4,0.6c4.7,0,11.8-0.6,13.1-0.6c1.7,0,1.9,0.5,1.9,1.3c0,1.7-0.6,1.3-5,2.5
			c-7.2,2-7.9,4.1-24.5,20.8c24.4,39.6,23.4,42.8,29.2,44c2,0.5,2.8,0.9,2.8,1.9c0,1.3-0.9,1.9-2.8,1.9c-4.4,0-8.8-0.6-13.2-0.6
			c-3.3,0-6.6,0.6-10.5,0.6c-1.7,0-2.4-0.8-2.4-1.9c0-0.9,0.6-1.4,2.5-1.9c3-0.8,3.3-1.3,3.3-3.3c0-1.4-2.8-5.5-18.1-32.1L556,151.8
			z"/>
		<path class="st0" d="M633.8,143.5c-2.7,0-3.3,0.5-3.3,5.5c0,15.1,6.6,28.5,18.6,28.5c16.5,0,15.6-12.6,18.9-12.6
			c1.3,0,1.7,0.6,1.7,1.9c0,3.9-7.4,18.5-25,18.5c-15.9,0-28.6-13-28.6-37.3c0-20.3,11.3-38.8,29.9-38.8c16.4,0,23.7,14.1,23.7,27.8
			c0,5.3-1.3,6.4-4.7,6.4H633.8z M646.4,113c-13.1,0-15.2,20.3-15.2,23.4c0,2.5,1.4,3.3,6.6,3.3c14.8,0,19-2,19-11.2
			C656.8,122,654.1,113,646.4,113z"/>
		<path class="st0" d="M704.2,111.7h10.1c1.6,0,1.9,0.6,1.9,2.7c0,2-0.3,2.7-1.9,2.7H705c-0.6,0-0.8,0.6-0.8,0.9v48.3
			c0,6.9,1.6,9.6,4.7,9.6c4.4,0,5.8-7.6,8-7.6c0.9,0,1.4,0.6,1.4,2c0,2.4-4.9,14.9-15.1,14.9c-9.3,0-12-8.5-12-18.9v-46.8
			c0-1.9-0.5-2.5-1.7-2.5h-4.2c-1.4,0-1.6-0.5-1.6-1.4c0-1.9,2.8-2.5,8.5-8.6c8-8.6,7.5-15.4,10.4-15.4c0.8,0,1.6,0.9,1.6,2.4V111.7
			z"/>
	</g>
	<g>
		<path class="st0" d="M375.5,194.5h5.7l11.6,15.9l0.1,0.1h-0.1l0.1-0.1v-15.9h4.3v21.4h-5.4l-11.8-16.4h-0.1v16.4h-4.3V194.5z"/>
		<path class="st0" d="M423.7,194.5h15.9v3.4h-11.6v5.3h11v3.4h-11v5.8h12.2v3.4h-16.5V194.5z"/>
		<path class="st0" d="M470.5,198h-7.3v-3.4h19v3.4h-7.3v18h-4.3V198z"/>
		<path class="st0" d="M503.6,194.5h4.7l4.5,15.4h0.1l5.4-15.4h4.2l5.3,15.4h0.1l4.7-15.4h4.3l-7,21.4h-4.1l-5.5-16.3h-0.1
			l-5.6,16.3h-3.9L503.6,194.5z"/>
		<path class="st0" d="M572.1,194c7.5-0.1,12.8,4.4,12.8,11.2c0,6.7-5.3,11.1-12.8,11.3c-7.4,0-12.7-4.5-12.7-11.1
			C559.4,198.4,564.7,194,572.1,194z M572.1,213c5,0,8.3-3.4,8.3-7.9c0-4.3-3.3-7.6-8.3-7.6c-4.9,0-8.2,3.4-8.2,7.6
			C563.9,209.6,567.1,213,572.1,213z"/>
		<path class="st0" d="M610.1,194.5h8.3c4.6,0,8.9,1.3,8.9,6.1c0,3.1-2,5.3-5.5,5.8l6.4,9.5H623l-5.5-9.1h-3.1v9.1h-4.3V194.5z
			 M617.7,203.6c2.4,0,5.2-0.2,5.2-3c0-2.5-2.6-2.8-4.8-2.8h-3.7v5.8H617.7z"/>
		<path class="st0" d="M652.7,194.5h4.3v9.1h0.2l9.9-9.1h5.8l-11.2,9.9l12,11.5h-6l-10.4-10.5h-0.2v10.5h-4.3V194.5z"/>
		<path class="st0" d="M708.8,199.1c-0.9-1.2-2.5-1.7-4.2-1.7c-2,0-3.9,0.8-3.9,2.8c0,4.3,11.4,1.8,11.4,9.5c0,4.6-4.1,6.8-8.8,6.8
			c-3,0-5.9-0.8-7.9-2.9l3.2-2.8c1,1.4,2.8,2.2,4.7,2.2c2,0,4.2-1,4.2-2.9c0-4.7-11.4-2-11.4-9.6c0-4.4,4.4-6.5,8.8-6.5
			c2.5,0,5,0.6,6.9,2.2L708.8,199.1z"/>
	</g>
	<rect x="239.8" y="71.5" class="st2" width="418.5" height="145.5"/>
</g>
</svg>
